<?xml version="1.0" encoding="utf-8"?>
<!-- Generator: Adobe Illustrator 25.0.0, SVG Export Plug-In . SVG Version: 6.00 Build 0)  -->
<svg version="1.1" id="Ebene_1" xmlns="http://www.w3.org/2000/svg" xmlns:xlink="http://www.w3.org/1999/xlink" x="0px" y="0px"
	 viewBox="0 0 250 15" style="enable-background:new 0 0 250 15;" xml:space="preserve">
<style type="text/css">
	.st0{fill:url(#SVGID_1_);}
</style>
<linearGradient id="SVGID_1_" gradientUnits="userSpaceOnUse" x1="0.1047" y1="8.0144" x2="250.1047" y2="8.0144">
	<stop  offset="1.281415e-03" style="stop-color:#74C0D9;stop-opacity:0"/>
	<stop  offset="0.5" style="stop-color:#74C0D9"/>
	<stop  offset="1" style="stop-color:#74C0D9;stop-opacity:0"/>
</linearGradient>
<rect x="0.1" y="7.8" class="st0" width="250" height="0.4"/>
</svg>
